[01m[K../.././../gmp/gmp-uber/printf/repl-vsnprintf.c:396:0:[m[K [01;35m[Kwarning: [m[KISO C forbids an empty translation unit [-Wpedantic]
 #endif /* ! HAVE_VSNPRINTF */
[01;32m[K ^[m[K
make[1]: AVERTISSEMENT : -jN forcé dans un submake : désactivation du mode serveur de tâches.
ar: `u' modifier ignored since `D' is the default (see `U')
ar: `u' modifier ignored since `D' is the default (see `U')
ar: `u' modifier ignored since `D' is the default (see `U')
[01m[K../.././../binutils/binutils-uber/libiberty/choose-temp.c:[m[K In function ‘[01m[Kchoose_temp_base[m[K’:
[01m[K../.././../binutils/binutils-uber/libiberty/choose-temp.c:62:22:[m[K [01;35m[Kwarning: [m[Kimplicit declaration of function ‘[01m[Kchoose_tmpdir[m[K’ [-Wimplicit-function-declaration]
   const char *base = choose_tmpdir ();
[01;32m[K                      ^[m[K
[01m[K../.././../binutils/binutils-uber/libiberty/choose-temp.c:62:22:[m[K [01;35m[Kwarning: [m[Kinitialization makes pointer from integer without a cast [-Wint-conversion]
/home/guillaume/android/ubertc/build/binutils-uber/binutils/../.././../binutils/binutils-uber/binutils/sysinfo.y: avertissement: 1 conflit par décalage/réduction [-Wconflicts-sr]
/home/guillaume/android/ubertc/build/binutils-uber/binutils/../.././../binutils/binutils-uber/binutils/defparse.y: avertissement: 27 conflits par décalage/réduction [-Wconflicts-sr]
/home/guillaume/android/ubertc/build/binutils-uber/binutils/../.././../binutils/binutils-uber/binutils/rcparse.y: avertissement: 58 conflits par décalage/réduction [-Wconflicts-sr]
/home/guillaume/android/ubertc/build/binutils-uber/binutils/../.././../binutils/binutils-uber/binutils/rcparse.y: avertissement: 10 conflits par réduction/réduction [-Wconflicts-rr]
/home/guillaume/android/ubertc/build/binutils-uber/binutils/../.././../binutils/binutils-uber/binutils/mcparse.y: avertissement: 1 conflit par décalage/réduction [-Wconflicts-sr]
/home/guillaume/android/ubertc/build/binutils-uber/ld/../.././../binutils/binutils-uber/ld/deffilep.y: avertissement: 76 conflits par décalage/réduction [-Wconflicts-sr]
../.././../binutils/binutils-uber/ld/ld.texinfo:1363: warning: @pxref cross-reference name should not contain `:'
*** This configuration is not supported in the following subdirectories:
     target-libgomp target-libatomic target-libcilkrts target-libsanitizer target-libvtv target-libmpx gnattools gotools target-libada target-libgfortran target-libbacktrace target-libgo target-libffi target-zlib target-libjava target-libobjc target-liboffloadmic target-libitm target-libstdc++-v3 target-libssp target-boehm-gc
    (Any other directories should still work fine.)
../../.././../binutils/binutils-uber/gas/doc/as.texinfo:4514: warning: node `Byte' is next for `Bundle directives' in menu but not in sectioning
../../.././../binutils/binutils-uber/gas/doc/as.texinfo:4570: warning: node `Bundle directives' is prev for `Byte' in menu but not in sectioning
../../.././../binutils/binutils-uber/gas/doc/as.texinfo:4578: warning: node `Comm' is next for `CFI directives' in menu but not in sectioning
../../.././../binutils/binutils-uber/gas/doc/as.texinfo:4700: warning: node `CFI directives' is prev for `Comm' in menu but not in sectioning
../../../../binutils/binutils-uber/gas/doc/c-i386.texi:487: warning: node `i386-Regs' is next for `i386-Mnemonics' in menu but not in sectioning
../../../../binutils/binutils-uber/gas/doc/c-i386.texi:587: warning: node `i386-Mnemonics' is prev for `i386-Regs' in menu but not in sectioning
../../../../binutils/binutils-uber/gas/doc/c-i386.texi:1002: warning: node next `i386-16bit' in menu `i386-Arch' and in sectioning `i386-Bugs' differ
../../../../binutils/binutils-uber/gas/doc/c-i386.texi:1054: warning: node next `i386-Bugs' in menu `i386-Notes' and in sectioning `i386-Arch' differ
../../../../binutils/binutils-uber/gas/doc/c-i386.texi:1054: warning: node prev `i386-Bugs' in menu `i386-Arch' and in sectioning `i386-16bit' differ
../../../../binutils/binutils-uber/gas/doc/c-i386.texi:1075: warning: node next `i386-Arch' in menu `i386-Bugs' and in sectioning `i386-Notes' differ
../../../../binutils/binutils-uber/gas/doc/c-i386.texi:1075: warning: node prev `i386-Arch' in menu `i386-16bit' and in sectioning `i386-Bugs' differ
../../../../binutils/binutils-uber/gas/doc/c-i386.texi:1146: warning: node prev `i386-Notes' in menu `i386-Bugs' and in sectioning `i386-Arch' differ
../../../../binutils/binutils-uber/gas/doc/c-ns32k.texi:34: warning: node next `NS32K-Dependent' in menu `SH-Dependent' and in sectioning `PDP-11-Dependent' differ
../../../../binutils/binutils-uber/gas/doc/c-pdp11.texi:6: warning: node prev `PDP-11-Dependent' in menu `SH64-Dependent' and in sectioning `NS32K-Dependent' differ
../../../../binutils/binutils-uber/gas/doc/c-score.texi:6: warning: node next `SCORE-Dependent' in menu `Sparc-Dependent' and in sectioning `SH-Dependent' differ
../../../../binutils/binutils-uber/gas/doc/c-sh.texi:5: warning: node prev `SH-Dependent' in menu `NS32K-Dependent' and in sectioning `SCORE-Dependent' differ
../../../../binutils/binutils-uber/gas/doc/c-sh64.texi:5: warning: node next `SH64-Dependent' in menu `PDP-11-Dependent' and in sectioning `Sparc-Dependent' differ
../../../../binutils/binutils-uber/gas/doc/c-sparc.texi:6: warning: node prev `Sparc-Dependent' in menu `SCORE-Dependent' and in sectioning `SH64-Dependent' differ
../../../../binutils/binutils-uber/gas/doc/c-tilepro.texi:6: warning: node next `TILEPro-Dependent' in menu `V850-Dependent' and in sectioning `Z80-Dependent' differ
../../../../binutils/binutils-uber/gas/doc/c-z80.texi:7: warning: node prev `Z80-Dependent' in menu `Xtensa-Dependent' and in sectioning `TILEPro-Dependent' differ
../../../../binutils/binutils-uber/gas/doc/c-vax.texi:6: warning: node `V850-Dependent' is next for `Vax-Dependent' in sectioning but not in menu
../../../../binutils/binutils-uber/gas/doc/c-v850.texi:5: warning: node prev `V850-Dependent' in menu `TILEPro-Dependent' and in sectioning `Vax-Dependent' differ
../../../../binutils/binutils-uber/gas/doc/c-xtensa.texi:8: warning: node `Z80-Dependent' is next for `Xtensa-Dependent' in menu but not in sectioning
../../.././../binutils/binutils-uber/gas/doc/as.texinfo:3649: warning: @pxref cross-reference name should not contain `:'
configure: WARNING: decimal float is not supported for this target, ignored
x86_64-linux-gnu-ar: le modificateur « u » est ignoré puisque « D » est le défaut (consultez « U »)
x86_64-linux-gnu-ar: le modificateur « u » est ignoré puisque « D » est le défaut (consultez « U »)
libtool: install: warning: remember to run `libtool --finish /home/guillaume/android/ubertc/out/arm-eabi-6.0-cortex-a9/libexec/gcc/arm-eabi/6.0.0'
[01m[K../.././../gcc/gcc-UBER/libcpp/expr.c:[m[K In function ‘[01m[Kunsigned int cpp_classify_number(cpp_reader*, const cpp_token*, const char**, source_location)[m[K’:
[01m[K../.././../gcc/gcc-UBER/libcpp/expr.c:686:18:[m[K [01;35m[Kwarning: [m[Kformat not a string literal and no format arguments [-Wformat-security]
        0, message);
[01;32m[K                  ^[m[K
[01m[K../.././../gcc/gcc-UBER/libcpp/expr.c:689:39:[m[K [01;35m[Kwarning: [m[Kformat not a string literal and no format arguments [-Wformat-security]
           virtual_location, 0, message);
[01;32m[K                                       ^[m[K
[01m[K../../.././../gcc/gcc-UBER/libcpp/expr.c:[m[K In function ‘[01m[Kunsigned int cpp_classify_number(cpp_reader*, const cpp_token*, const char**, source_location)[m[K’:
[01m[K../../.././../gcc/gcc-UBER/libcpp/expr.c:686:18:[m[K [01;35m[Kwarning: [m[Kformat not a string literal and no format arguments [-Wformat-security]
        0, message);
[01;32m[K                  ^[m[K
[01m[K../../.././../gcc/gcc-UBER/libcpp/expr.c:689:39:[m[K [01;35m[Kwarning: [m[Kformat not a string literal and no format arguments [-Wformat-security]
           virtual_location, 0, message);
[01;32m[K                                       ^[m[K
[01m[K../.././../gcc/gcc-UBER/libcpp/macro.c:[m[K In function ‘[01m[Kbool create_iso_definition(cpp_reader*, cpp_macro*)[m[K’:
[01m[K../.././../gcc/gcc-UBER/libcpp/macro.c:3081:58:[m[K [01;35m[Kwarning: [m[Kformat not a string literal and no format arguments [-Wformat-security]
        cpp_error (pfile, CPP_DL_ERROR, paste_op_error_msg);
[01;32m[K                                                          ^[m[K
[01m[K../.././../gcc/gcc-UBER/libcpp/macro.c:3094:58:[m[K [01;35m[Kwarning: [m[Kformat not a string literal and no format arguments [-Wformat-security]
        cpp_error (pfile, CPP_DL_ERROR, paste_op_error_msg);
[01;32m[K                                                          ^[m[K
configure: WARNING: decimal float is not supported for this target, ignored
x86_64-linux-gnu-ar: le modificateur « u » est ignoré puisque « D » est le défaut (consultez « U »)
[01m[K../../.././../gcc/gcc-UBER/libcpp/macro.c:[m[K In function ‘[01m[Kbool create_iso_definition(cpp_reader*, cpp_macro*)[m[K’:
[01m[K../../.././../gcc/gcc-UBER/libcpp/macro.c:3081:58:[m[K [01;35m[Kwarning: [m[Kformat not a string literal and no format arguments [-Wformat-security]
        cpp_error (pfile, CPP_DL_ERROR, paste_op_error_msg);
[01;32m[K                                                          ^[m[K
[01m[K../../.././../gcc/gcc-UBER/libcpp/macro.c:3094:58:[m[K [01;35m[Kwarning: [m[Kformat not a string literal and no format arguments [-Wformat-security]
        cpp_error (pfile, CPP_DL_ERROR, paste_op_error_msg);
[01;32m[K                                                          ^[m[K
ar: le modificateur « u » est ignoré puisque « D » est le défaut (consultez « U »)
Links are now set up to build a cross-compiler
 from x86_64-pc-linux-gnu to arm-unknown-eabi.
[01m[K../.././../gcc/gcc-UBER/gcc/genhooks.c:[m[K In function ‘[01m[Kvoid emit_documentation(const char*)[m[K’:
[01m[K../.././../gcc/gcc-UBER/gcc/genhooks.c:130:3:[m[K [01;35m[Kwarning: [m[Kignoring return value of ‘[01m[Kint fscanf(FILE*, const char*, ...)[m[K’, declared with attribute warn_unused_result [-Wunused-result]
   while (fscanf (f, "%*[^@]"), buf[0] = '\0',
[01;32m[K   ^[m[K
[01m[K../.././../gcc/gcc-UBER/gcc/genhooks.c:139:31:[m[K [01;35m[Kwarning: [m[Kignoring return value of ‘[01m[Kint fscanf(FILE*, const char*, ...)[m[K’, declared with attribute warn_unused_result [-Wunused-result]
       fscanf (f, "%999s", buf);
[01;32m[K                               ^[m[K
[01m[K../.././../gcc/gcc-UBER/gcc/genhooks.c:192:34:[m[K [01;35m[Kwarning: [m[Kignoring return value of ‘[01m[Kint fscanf(FILE*, const char*, ...)[m[K’, declared with attribute warn_unused_result [-Wunused-result]
       fscanf (f, "%5[^ \n]", buf);
[01;32m[K                                  ^[m[K
[01m[K../.././../gcc/gcc-UBER/gcc/genhooks.c:198:31:[m[K [01;35m[Kwarning: [m[Kignoring return value of ‘[01m[Kint fscanf(FILE*, const char*, ...)[m[K’, declared with attribute warn_unused_result [-Wunused-result]
       fscanf (f, "%999s", buf);
[01;32m[K                               ^[m[K
GIMPLE decision tree has 1432 leafs, maximum depth 10 and a total number of 5516 nodes
removed 736 duplicate tails
GENERIC decision tree has 1432 leafs, maximum depth 10 and a total number of 5516 nodes
removed 736 duplicate tails
../.././../gcc/gcc-UBER/gcc/config/arm/arm.md:8154: warning: operand 0 missing mode?
../.././../gcc/gcc-UBER/gcc/config/arm/arm.md:8154: warning: operand 0 missing mode?
Statistics for recog:
  Number of decisions:  19986
  longest path:           327 (code:    339)
  longest backtrack:       22 (code:    795)
Statistics for split_insns:
  Number of decisions:   1817
  longest path:            69 (code:    115)
  longest backtrack:        8 (code:     85)
Statistics for peephole2_insns:
  Number of decisions:    418
  longest path:           141 (code:     16)
  longest backtrack:       12 (code:     32)
Shared 13723 out of 33101 states by creating 3185 new states, saving 10538
[01m[K../.././../gcc/gcc-UBER/gcc/c/c-decl.c:[m[K In function ‘[01m[Ktree_node* grokdeclarator(const c_declarator*, c_declspecs*, decl_context, bool, tree_node**, tree_node**, tree_node**, bool*, deprecated_states)[m[K’:
[01m[K../.././../gcc/gcc-UBER/gcc/c/c-decl.c:6091:16:[m[K [01;35m[Kwarning: [m[Kformat not a string literal and no format arguments [-Wformat-security]
   error (errmsg);
[01;32m[K                ^[m[K
[01m[K../.././../gcc/gcc-UBER/gcc/c/c-decl.c:[m[K In function ‘[01m[Ktree_node* grokparms(c_arg_info*, bool)[m[K’:
[01m[K../.././../gcc/gcc-UBER/gcc/c/c-decl.c:6882:21:[m[K [01;35m[Kwarning: [m[Kformat not a string literal and no format arguments [-Wformat-security]
        error (errmsg);
[01;32m[K                     ^[m[K
[01m[K../.././../gcc/gcc-UBER/gcc/c/c-typeck.c:[m[K In function ‘[01m[Kint convert_arguments(location_t, vec<unsigned int>, tree, vec<tree_node*, va_gc>*, vec<tree_node*, va_gc>*, tree, tree)[m[K’:
[01m[K../.././../gcc/gcc-UBER/gcc/c/c-typeck.c:3424:28:[m[K [01;35m[Kwarning: [m[Kformat not a string literal and no format arguments [-Wformat-security]
    error (invalid_func_diag);
[01;32m[K                            ^[m[K
[01m[K../.././../gcc/gcc-UBER/gcc/c/c-typeck.c:[m[K In function ‘[01m[Ktree_node* build_unary_op(location_t, tree_code, tree, int)[m[K’:
[01m[K../.././../gcc/gcc-UBER/gcc/c/c-typeck.c:4048:42:[m[K [01;35m[Kwarning: [m[Kformat not a string literal and no format arguments [-Wformat-security]
       error_at (location, invalid_op_diag);
[01;32m[K                                          ^[m[K
[01m[K../.././../gcc/gcc-UBER/gcc/c/c-typeck.c:[m[K In function ‘[01m[Kvoid error_init(location_t, const char*)[m[K’:
[01m[K../.././../gcc/gcc-UBER/gcc/c/c-typeck.c:5849:24:[m[K [01;35m[Kwarning: [m[Kformat not a string literal and no format arguments [-Wformat-security]
   error_at (loc, gmsgid);
[01;32m[K                        ^[m[K
[01m[K../.././../gcc/gcc-UBER/gcc/c/c-typeck.c:[m[K In function ‘[01m[Kvoid pedwarn_init(location_t, int, const char*)[m[K’:
[01m[K../.././../gcc/gcc-UBER/gcc/c/c-typeck.c:5867:42:[m[K [01;35m[Kwarning: [m[Kformat not a string literal and no format arguments [-Wformat-security]
   warned = pedwarn (location, opt, gmsgid);
[01;32m[K                                          ^[m[K
[01m[K../.././../gcc/gcc-UBER/gcc/c/c-typeck.c:[m[K In function ‘[01m[Kvoid warning_init(location_t, int, const char*)[m[K’:
[01m[K../.././../gcc/gcc-UBER/gcc/c/c-typeck.c:5886:40:[m[K [01;35m[Kwarning: [m[Kformat not a string literal and no format arguments [-Wformat-security]
   warned = warning_at (loc, opt, gmsgid);
[01;32m[K                                        ^[m[K
[01m[K../.././../gcc/gcc-UBER/gcc/c/c-typeck.c:[m[K In function ‘[01m[Ktree_node* build_binary_op(location_t, tree_code, tree, tree, int)[m[K’:
[01m[K../.././../gcc/gcc-UBER/gcc/c/c-typeck.c:10658:42:[m[K [01;35m[Kwarning: [m[Kformat not a string literal and no format arguments [-Wformat-security]
       error_at (location, invalid_op_diag);
[01;32m[K                                          ^[m[K
[01m[K../.././../gcc/gcc-UBER/gcc/c/c-convert.c:[m[K In function ‘[01m[Ktree_node* convert(tree, tree)[m[K’:
[01m[K../.././../gcc/gcc-UBER/gcc/c/c-convert.c:78:31:[m[K [01;35m[Kwarning: [m[Kformat not a string literal and no format arguments [-Wformat-security]
       error (invalid_conv_diag);
[01;32m[K                               ^[m[K
[01m[K../.././../gcc/gcc-UBER/gcc/c-family/c-common.c:[m[K In function ‘[01m[Kvoid c_parse_error(const char*, cpp_ttype, tree, unsigned char)[m[K’:
[01m[K../.././../gcc/gcc-UBER/gcc/c-family/c-common.c:10134:18:[m[K [01;35m[Kwarning: [m[Kformat not a string literal and no format arguments [-Wformat-security]
     error (gmsgid);
[01;32m[K                  ^[m[K
[01m[K../.././../gcc/gcc-UBER/gcc/c-family/c-common.c:10138:21:[m[K [01;35m[Kwarning: [m[Kformat not a string literal and no format arguments [-Wformat-security]
       error (message);
[01;32m[K                     ^[m[K
[01m[K../.././../gcc/gcc-UBER/gcc/c-family/cilk.c:[m[K In function ‘[01m[Kbool check_no_cilk(tree, const char*, const char*, location_t)[m[K’:
[01m[K../.././../gcc/gcc-UBER/gcc/c-family/cilk.c:1414:33:[m[K [01;35m[Kwarning: [m[Kformat not a string literal and no format arguments [-Wformat-security]
       error_at (loc, array_msgid);
[01;32m[K                                 ^[m[K
[01m[K../.././../gcc/gcc-UBER/gcc/c-family/cilk.c:1420:33:[m[K [01;35m[Kwarning: [m[Kformat not a string literal and no format arguments [-Wformat-security]
       error_at (loc, spawn_msgid);
[01;32m[K                                 ^[m[K
[01m[K../.././../gcc/gcc-UBER/gcc/fold-const.c:[m[K In function ‘[01m[Kvoid fold_overflow_warning(const char*, warn_strict_overflow_code)[m[K’:
[01m[K../.././../gcc/gcc-UBER/gcc/fold-const.c:313:42:[m[K [01;35m[Kwarning: [m[Kformat not a string literal and no format arguments [-Wformat-security]
     warning (OPT_Wstrict_overflow, gmsgid);
[01;32m[K                                          ^[m[K
[01m[K../.././../gcc/gcc-UBER/gcc/gimple-ssa-isolate-paths.c:[m[K In function ‘[01m[Kvoid find_explicit_erroneous_behavior()[m[K’:
[01m[K../.././../gcc/gcc-UBER/gcc/gimple-ssa-isolate-paths.c:446:38:[m[K [01;35m[Kwarning: [m[Kformat not a string literal and no format arguments [-Wformat-security]
           OPT_Wreturn_local_addr, msg))
[01;32m[K                                      ^[m[K
[01m[K../.././../gcc/gcc-UBER/gcc/hsa-gen.c:[m[K In member function ‘[01m[Kvoid omp_simple_builtin::generate(gimple*, hsa_bb*)[m[K’:
[01m[K../.././../gcc/gcc-UBER/gcc/hsa-gen.c:83:32:[m[K [01;35m[Kwarning: [m[Kformat not a string literal and no format arguments [-Wformat-security]
       inform (location, message); \
[01;32m[K                                ^[m[K
[01m[K../.././../gcc/gcc-UBER/gcc/hsa-gen.c:4229:2:[m[K [01;36m[Knote: [m[Kin expansion of macro ‘[01m[KHSA_SORRY_AT[m[K’
  HSA_SORRY_AT (gimple_location (stmt), m_warning_message)
[01;32m[K  ^[m[K
[01m[K../.././../gcc/gcc-UBER/gcc/hsa-gen.c:4236:68:[m[K [01;35m[Kwarning: [m[Kformat not a string literal and no format arguments [-Wformat-security]
     warning_at (gimple_location (stmt), OPT_Whsa, m_warning_message);
[01;32m[K                                                                    ^[m[K
[01m[K../.././../gcc/gcc-UBER/gcc/hsa-brig.c:[m[K In function ‘[01m[Kvoid brig_init()[m[K’:
[01m[K../.././../gcc/gcc-UBER/gcc/hsa-brig.c:495:48:[m[K [01;35m[Kwarning: [m[Kignoring return value of ‘[01m[Kint asprintf(char**, const char*, ...)[m[K’, declared with attribute warn_unused_result [-Wunused-result]
    asprintf (&modname2, "%s_%s", modname, part);
[01;32m[K                                                ^[m[K
[01m[K../.././../gcc/gcc-UBER/gcc/ipa-devirt.c:[m[K In function ‘[01m[Kvoid warn_odr(tree, tree, tree, tree, bool, bool*, const char*)[m[K’:
[01m[K../.././../gcc/gcc-UBER/gcc/ipa-devirt.c:996:47:[m[K [01;35m[Kwarning: [m[Kformat not a string literal and no format arguments [-Wformat-security]
   inform (DECL_SOURCE_LOCATION (decl2), reason);
[01;32m[K                                               ^[m[K
[01m[K../.././../gcc/gcc-UBER/gcc/cp/call.c:[m[K In function ‘[01m[Ktree_node* build_op_delete_call(tree_code, tree, tree, bool, tree, tree, tsubst_flags_t)[m[K’:
[01m[K../.././../gcc/gcc-UBER/gcc/cp/call.c:5980:40:[m[K [01;35m[Kwarning: [m[Kformat not a string literal and no format arguments [-Wformat-security]
     && warning (OPT_Wc__14_compat, msg1))
[01;32m[K                                        ^[m[K
[01m[K../.././../gcc/gcc-UBER/gcc/cp/call.c:5987:43:[m[K [01;35m[Kwarning: [m[Kformat not a string literal and no format arguments [-Wformat-security]
        if (permerror (input_location, msg1))
[01;32m[K                                           ^[m[K
[01m[K../.././../gcc/gcc-UBER/gcc/cp/decl.c:[m[K In function ‘[01m[Ktree_node* grokdeclarator(const cp_declarator*, cp_decl_specifier_seq*, decl_context, int, tree_node**)[m[K’:
[01m[K../.././../gcc/gcc-UBER/gcc/cp/decl.c:10022:16:[m[K [01;35m[Kwarning: [m[Kformat not a string literal and no format arguments [-Wformat-security]
   error (errmsg);
[01;32m[K                ^[m[K
[01m[K../.././../gcc/gcc-UBER/gcc/cp/decl.c:[m[K In function ‘[01m[Ktree_node* grokparms(tree, tree_node**)[m[K’:
[01m[K../.././../gcc/gcc-UBER/gcc/cp/decl.c:11700:17:[m[K [01;35m[Kwarning: [m[Kformat not a string literal and no format arguments [-Wformat-security]
    error (errmsg);
[01;32m[K                 ^[m[K
[01m[K../.././../gcc/gcc-UBER/gcc/cp/pt.c:[m[K In function ‘[01m[Ktree_node* tsubst_copy_and_build(tree, tree, tsubst_flags_t, tree, bool, bool)[m[K’:
[01m[K../.././../gcc/gcc-UBER/gcc/cp/pt.c:15964:20:[m[K [01;35m[Kwarning: [m[Kformat not a string literal and no format arguments [-Wformat-security]
    error (error_msg);
[01;32m[K                    ^[m[K
[01m[K../.././../gcc/gcc-UBER/gcc/cp/parser.c:[m[K In function ‘[01m[Kbool cp_parser_check_type_definition(cp_parser*)[m[K’:
[01m[K../.././../gcc/gcc-UBER/gcc/cp/parser.c:2919:55:[m[K [01;35m[Kwarning: [m[Kformat not a string literal and no format arguments [-Wformat-security]
       error (parser->type_definition_forbidden_message);
[01;32m[K                                                       ^[m[K
[01m[K../.././../gcc/gcc-UBER/gcc/cp/typeck.c:[m[K In function ‘[01m[Ktree_node* cp_build_binary_op(location_t, tree_code, tree, tree, tsubst_flags_t)[m[K’:
[01m[K../.././../gcc/gcc-UBER/gcc/cp/typeck.c:4125:24:[m[K [01;35m[Kwarning: [m[Kformat not a string literal and no format arguments [-Wformat-security]
  error (invalid_op_diag);
[01;32m[K                        ^[m[K
[01m[K../.././../gcc/gcc-UBER/gcc/cp/typeck.c:[m[K In function ‘[01m[Ktree_node* cp_build_unary_op(tree_code, tree, int, tsubst_flags_t)[m[K’:
[01m[K../.././../gcc/gcc-UBER/gcc/cp/typeck.c:5822:24:[m[K [01;35m[Kwarning: [m[Kformat not a string literal and no format arguments [-Wformat-security]
  error (invalid_op_diag);
[01;32m[K                        ^[m[K
[01m[K../.././../gcc/gcc-UBER/gcc/cp/cvt.c:[m[K In function ‘[01m[Ktree_node* ocp_convert(tree, tree, int, int, tsubst_flags_t)[m[K’:
[01m[K../.././../gcc/gcc-UBER/gcc/cp/cvt.c:685:26:[m[K [01;35m[Kwarning: [m[Kformat not a string literal and no format arguments [-Wformat-security]
  error (invalid_conv_diag);
[01;32m[K                          ^[m[K
[01m[K../.././../gcc/gcc-UBER/gcc/cp/init.c:[m[K In function ‘[01m[Ktree_node* build_new_1(vec<tree_node*, va_gc>**, tree, tree, vec<tree_node*, va_gc>**, bool, tsubst_flags_t)[m[K’:
[01m[K../.././../gcc/gcc-UBER/gcc/cp/init.c:2708:19:[m[K [01;35m[Kwarning: [m[Kformat not a string literal and no format arguments [-Wformat-security]
      OPT_Wvla, msg);
[01;32m[K                   ^[m[K
[01m[K../.././../gcc/gcc-UBER/gcc/collect2.c:[m[K In function ‘[01m[Kvoid scan_prog_file(const char*, scanpass, scanfilter)[m[K’:
[01m[K../.././../gcc/gcc-UBER/gcc/collect2.c:2377:37:[m[K [01;35m[Kwarning: [m[Kformat not a string literal and no format arguments [-Wformat-security]
  fatal_error (input_location, errmsg);
[01;32m[K                                     ^[m[K
[01m[K../.././../gcc/gcc-UBER/gcc/collect-utils.c:[m[K In function ‘[01m[Kpex_obj* collect_execute(const char*, char**, const char*, const char*, int, bool)[m[K’:
[01m[K../.././../gcc/gcc-UBER/gcc/collect-utils.c:195:37:[m[K [01;35m[Kwarning: [m[Kformat not a string literal and no format arguments [-Wformat-security]
  fatal_error (input_location, errmsg);
[01;32m[K                                     ^[m[K
[01m[K../.././../gcc/gcc-UBER/gcc/lto-wrapper.c:[m[K In function ‘[01m[Kbool find_and_merge_options(int, off_t, const char*, cl_decoded_option**, unsigned int*, const char*)[m[K’:
[01m[K../.././../gcc/gcc-UBER/gcc/lto-wrapper.c:912:26:[m[K [01;35m[Kwarning: [m[Kignoring return value of ‘[01m[Kssize_t read(int, void*, size_t)[m[K’, declared with attribute warn_unused_result [-Wunused-result]
   read (fd, data, length);
[01;32m[K                          ^[m[K
[01m[K../.././../gcc/gcc-UBER/gcc/gcc.c:[m[K In function ‘[01m[Kint execute()[m[K’:
[01m[K../.././../gcc/gcc-UBER/gcc/gcc.c:3076:41:[m[K [01;35m[Kwarning: [m[Kformat not a string literal and no format arguments [-Wformat-security]
      fatal_error (input_location, errmsg);
[01;32m[K                                         ^[m[K
[01m[K../.././../gcc/gcc-UBER/gcc/gcc.c:[m[K In function ‘[01m[Kattempt_status run_attempt(const char**, const char*, const char*, int, int)[m[K’:
[01m[K../.././../gcc/gcc-UBER/gcc/gcc.c:6737:37:[m[K [01;35m[Kwarning: [m[Kformat not a string literal and no format arguments [-Wformat-security]
  fatal_error (input_location, errmsg);
[01;32m[K                                     ^[m[K
[01m[K../.././../gcc/gcc-UBER/gcc/gcc.c:[m[K In function ‘[01m[Klong unsigned int get_random_number()[m[K’:
[01m[K../.././../gcc/gcc-UBER/gcc/gcc.c:9514:46:[m[K [01;35m[Kwarning: [m[Kignoring return value of ‘[01m[Kssize_t read(int, void*, size_t)[m[K’, declared with attribute warn_unused_result [-Wunused-result]
       read (fd, &ret, sizeof (HOST_WIDE_INT));
[01;32m[K                                              ^[m[K
[01m[K../.././../gcc/gcc-UBER/gcc/gcc.c:[m[K In function ‘[01m[Kvoid do_report_bug(const char**, int, char**, char**)[m[K’:
[01m[K../.././../gcc/gcc-UBER/gcc/gcc.c:6803:24:[m[K [01;35m[Kwarning: [m[Kignoring return value of ‘[01m[Kssize_t write(int, const void*, size_t)[m[K’, declared with attribute warn_unused_result [-Wunused-result]
   write (fd, "\n//", 3);
[01;32m[K                        ^[m[K
[01m[K../.././../gcc/gcc-UBER/gcc/gcc.c:6806:25:[m[K [01;35m[Kwarning: [m[Kignoring return value of ‘[01m[Kssize_t write(int, const void*, size_t)[m[K’, declared with attribute warn_unused_result [-Wunused-result]
       write (fd, " ", 1);
[01;32m[K                         ^[m[K
[01m[K../.././../gcc/gcc-UBER/gcc/gcc.c:6807:52:[m[K [01;35m[Kwarning: [m[Kignoring return value of ‘[01m[Kssize_t write(int, const void*, size_t)[m[K’, declared with attribute warn_unused_result [-Wunused-result]
       write (fd, new_argv[i], strlen (new_argv[i]));
[01;32m[K                                                    ^[m[K
[01m[K../.././../gcc/gcc-UBER/gcc/gcc.c:6809:24:[m[K [01;35m[Kwarning: [m[Kignoring return value of ‘[01m[Kssize_t write(int, const void*, size_t)[m[K’, declared with attribute warn_unused_result [-Wunused-result]
   write (fd, "\n\n", 2);
[01;32m[K                        ^[m[K
[01m[K../.././../gcc/gcc-UBER/gcc/lto/lto.c:[m[K In function ‘[01m[Kvoid lto_resolution_read(splay_tree, FILE*, lto_file*)[m[K’:
[01m[K../.././../gcc/gcc-UBER/gcc/lto/lto.c:1871:27:[m[K [01;35m[Kwarning: [m[Kignoring return value of ‘[01m[Kint fscanf(FILE*, const char*, ...)[m[K’, declared with attribute warn_unused_result [-Wunused-result]
   fscanf (resolution, " ");   /* Read white space. */
[01;32m[K                           ^[m[K
[01m[K../.././../gcc/gcc-UBER/gcc/lto/lto.c:1873:56:[m[K [01;35m[Kwarning: [m[Kignoring return value of ‘[01m[Ksize_t fread(void*, size_t, size_t, FILE*)[m[K’, declared with attribute warn_unused_result [-Wunused-result]
   fread (obj_name, sizeof (char), name_len, resolution);
[01;32m[K                                                        ^[m[K
[01m[K../.././../gcc/gcc-UBER/gcc/lto/lto.c:1893:42:[m[K [01;35m[Kwarning: [m[Kignoring return value of ‘[01m[Kint fscanf(FILE*, const char*, ...)[m[K’, declared with attribute warn_unused_result [-Wunused-result]
   fscanf (resolution, "%u", &num_symbols);
[01;32m[K                                          ^[m[K
Applying io_quotes_use            to linux/vm_sockets.h
Applying io_quotes_use            to linux/reiserfs_fs.h
Applying io_quotes_use            to linux/ashmem.h
Applying io_quotes_use            to linux/uinput.h
Applying io_quotes_use            to linux/usb/tmc.h
Applying io_quotes_use            to linux/ptp_clock.h
Applying io_quotes_use            to linux/sync.h
Applying io_quotes_use            to linux/atmbr2684.h
Applying io_quotes_use            to linux/auto_fs4.h
Applying io_quotes_use            to linux/hsi/hsi_char.h
Applying io_quotes_use            to linux/ion.h
Applying io_quotes_use            to linux/raid/md_u.h
Applying io_quotes_def            to linux/android_alarm.h
Applying io_quotes_use            to linux/spi/spidev.h
Applying io_quotes_use            to linux/btrfs.h
Applying io_quotes_use            to linux/mmtimer.h
Applying io_quotes_use            to linux/blkpg.h
Applying io_quotes_use            to linux/genwqe/genwqe_card.h
Applying io_quotes_use            to linux/vhost.h
Applying io_quotes_use            to linux/phantom.h
Applying io_quotes_use            to linux/cm4000_cs.h
Applying io_quotes_use            to linux/dm-ioctl.h
Applying io_quotes_use            to linux/fsl_hypervisor.h
Applying io_quotes_use            to linux/watchdog.h
Applying io_quotes_use            to linux/gigaset_dev.h
Applying io_quotes_use            to linux/omapfb.h
Applying io_quotes_use            to linux/rfkill.h
Applying io_quotes_use            to linux/suspend_ioctls.h
Applying io_quotes_use            to linux/sw_sync.h
Applying io_quotes_use            to linux/i2o-dev.h
Applying io_quotes_use            to linux/if_pppox.h
Applying io_quotes_def            to linux/version.h
Applying io_quotes_use            to linux/ipmi.h
Applying io_quotes_use            to linux/random.h
Applying io_quotes_use            to linux/vfio.h
Applying io_quotes_use            to linux/fs.h
Applying io_quotes_use            to linux/nbd.h
Applying io_quotes_use            to linux/synclink.h
Applying io_quotes_use            to linux/auto_fs.h
Applying io_quotes_def            to linux/ppp-comp.h
Applying io_quotes_use            to linux/ppdev.h
Applying io_quotes_use            to linux/kvm.h
Applying io_quotes_use            to linux/agpgart.h
Applying io_quotes_def            to linux/soundcard.h
Applying io_quotes_use            to linux/raw.h
Applying io_quotes_use            to linux/mmc/ioctl.h
Applying io_quotes_use            to linux/dn.h
Applying io_quotes_use            to linux/cciss_ioctl.h
Applying io_quotes_use            to linux/fd.h
Applying io_quotes_use            to linux/pktcdvd.h
Applying io_quotes_def            to linux/pci_regs.h
Applying io_quotes_use            to linux/media.h
Applying io_quotes_use            to linux/input.h
Applying sun_malloc               to malloc.h
Applying sysv68_string            to string.h
configure: WARNING: decimal float is not supported for this target, ignored
mkdir thumb
configure: WARNING: decimal float is not supported for this target, ignored
mkdir thumb/thumb2
configure: WARNING: decimal float is not supported for this target, ignored
[01m[K../../../.././../gcc/gcc-UBER/libgcc/config/arm/fp16.c:100:1:[m[K [01;35m[Kwarning: [m[Kno previous prototype for '[01m[K__gnu_h2f_internal[m[K' [[01;35m[K-Wmissing-prototypes[m[K]
 [01;35m[K__gnu_h2f_internal[m[K(unsigned short a, int ieee)
 [01;35m[K^~~~~~~~~~~~~~~~~~[m[K
[01m[K../../../.././../gcc/gcc-UBER/libgcc/config/arm/fp16.c:125:1:[m[K [01;35m[Kwarning: [m[Kno previous prototype for '[01m[K__gnu_f2h_ieee[m[K' [[01;35m[K-Wmissing-prototypes[m[K]
 [01;35m[K__gnu_f2h_ieee[m[K(unsigned int a)
 [01;35m[K^~~~~~~~~~~~~~[m[K
[01m[K../../../.././../gcc/gcc-UBER/libgcc/config/arm/fp16.c:131:1:[m[K [01;35m[Kwarning: [m[Kno previous prototype for '[01m[K__gnu_h2f_ieee[m[K' [[01;35m[K-Wmissing-prototypes[m[K]
 [01;35m[K__gnu_h2f_ieee[m[K(unsigned short a)
 [01;35m[K^~~~~~~~~~~~~~[m[K
[01m[K../../../.././../gcc/gcc-UBER/libgcc/config/arm/fp16.c:137:1:[m[K [01;35m[Kwarning: [m[Kno previous prototype for '[01m[K__gnu_f2h_alternative[m[K' [[01;35m[K-Wmissing-prototypes[m[K]
 [01;35m[K__gnu_f2h_alternative[m[K(unsigned int x)
 [01;35m[K^~~~~~~~~~~~~~~~~~~~~[m[K
[01m[K../../../.././../gcc/gcc-UBER/libgcc/config/arm/fp16.c:143:1:[m[K [01;35m[Kwarning: [m[Kno previous prototype for '[01m[K__gnu_h2f_alternative[m[K' [[01;35m[K-Wmissing-prototypes[m[K]
 [01;35m[K__gnu_h2f_alternative[m[K(unsigned short a)
 [01;35m[K^~~~~~~~~~~~~~~~~~~~~[m[K
In file included from [01m[K../../../.././../gcc/gcc-UBER/libgcc/config/arm/unwind-arm.c:143:0[m[K:
[01m[K../../../.././../gcc/gcc-UBER/libgcc/unwind-arm-common.inc:[m[K In function '[01m[Kget_eit_entry[m[K':
[01m[K../../../.././../gcc/gcc-UBER/libgcc/unwind-arm-common.inc:245:29:[m[K [01;35m[Kwarning: [m[Kcast discards '[01m[Kconst[m[K' qualifier from pointer target type [[01;35m[K-Wcast-qual[m[K]
       ucbp->pr_cache.ehtp = [01;35m[K([m[K_Unwind_EHT_Header *)&eitp->content;
                             [01;35m[K^[m[K
[01m[K../../.././../gcc/gcc-UBER/libgcc/config/arm/fp16.c:100:1:[m[K [01;35m[Kwarning: [m[Kno previous prototype for '[01m[K__gnu_h2f_internal[m[K' [[01;35m[K-Wmissing-prototypes[m[K]
 [01;35m[K__gnu_h2f_internal[m[K(unsigned short a, int ieee)
 [01;35m[K^~~~~~~~~~~~~~~~~~[m[K
[01m[K../../.././../gcc/gcc-UBER/libgcc/config/arm/fp16.c:125:1:[m[K [01;35m[Kwarning: [m[Kno previous prototype for '[01m[K__gnu_f2h_ieee[m[K' [[01;35m[K-Wmissing-prototypes[m[K]
 [01;35m[K__gnu_f2h_ieee[m[K(unsigned int a)
 [01;35m[K^~~~~~~~~~~~~~[m[K
[01m[K../../.././../gcc/gcc-UBER/libgcc/config/arm/fp16.c:131:1:[m[K [01;35m[Kwarning: [m[Kno previous prototype for '[01m[K__gnu_h2f_ieee[m[K' [[01;35m[K-Wmissing-prototypes[m[K]
 [01;35m[K__gnu_h2f_ieee[m[K(unsigned short a)
 [01;35m[K^~~~~~~~~~~~~~[m[K
[01m[K../../.././../gcc/gcc-UBER/libgcc/config/arm/fp16.c:137:1:[m[K [01;35m[Kwarning: [m[Kno previous prototype for '[01m[K__gnu_f2h_alternative[m[K' [[01;35m[K-Wmissing-prototypes[m[K]
 [01;35m[K__gnu_f2h_alternative[m[K(unsigned int x)
 [01;35m[K^~~~~~~~~~~~~~~~~~~~~[m[K
[01m[K../../.././../gcc/gcc-UBER/libgcc/config/arm/fp16.c:143:1:[m[K [01;35m[Kwarning: [m[Kno previous prototype for '[01m[K__gnu_h2f_alternative[m[K' [[01;35m[K-Wmissing-prototypes[m[K]
 [01;35m[K__gnu_h2f_alternative[m[K(unsigned short a)
 [01;35m[K^~~~~~~~~~~~~~~~~~~~~[m[K
In file included from [01m[K../../.././../gcc/gcc-UBER/libgcc/config/arm/unwind-arm.c:143:0[m[K:
[01m[K../../.././../gcc/gcc-UBER/libgcc/unwind-arm-common.inc:[m[K In function '[01m[Kget_eit_entry[m[K':
[01m[K../../.././../gcc/gcc-UBER/libgcc/unwind-arm-common.inc:245:29:[m[K [01;35m[Kwarning: [m[Kcast discards '[01m[Kconst[m[K' qualifier from pointer target type [[01;35m[K-Wcast-qual[m[K]
       ucbp->pr_cache.ehtp = [01;35m[K([m[K_Unwind_EHT_Header *)&eitp->content;
                             [01;35m[K^[m[K
../../../../.././../gcc/gcc-UBER/libgcc/config/arm/lib1funcs.S: Assembler messages:
../../../../.././../gcc/gcc-UBER/libgcc/config/arm/lib1funcs.S:1003: Warning: conditional infixes are deprecated in unified syntax
../../../../.././../gcc/gcc-UBER/libgcc/config/arm/lib1funcs.S: Assembler messages:
../../../../.././../gcc/gcc-UBER/libgcc/config/arm/lib1funcs.S:1177: Warning: conditional infixes are deprecated in unified syntax
[01m[K../../../../.././../gcc/gcc-UBER/libgcc/config/arm/fp16.c:100:1:[m[K [01;35m[Kwarning: [m[Kno previous prototype for '[01m[K__gnu_h2f_internal[m[K' [[01;35m[K-Wmissing-prototypes[m[K]
 [01;35m[K__gnu_h2f_internal[m[K(unsigned short a, int ieee)
 [01;35m[K^~~~~~~~~~~~~~~~~~[m[K
[01m[K../../../../.././../gcc/gcc-UBER/libgcc/config/arm/fp16.c:125:1:[m[K [01;35m[Kwarning: [m[Kno previous prototype for '[01m[K__gnu_f2h_ieee[m[K' [[01;35m[K-Wmissing-prototypes[m[K]
 [01;35m[K__gnu_f2h_ieee[m[K(unsigned int a)
 [01;35m[K^~~~~~~~~~~~~~[m[K
[01m[K../../../../.././../gcc/gcc-UBER/libgcc/config/arm/fp16.c:131:1:[m[K [01;35m[Kwarning: [m[Kno previous prototype for '[01m[K__gnu_h2f_ieee[m[K' [[01;35m[K-Wmissing-prototypes[m[K]
 [01;35m[K__gnu_h2f_ieee[m[K(unsigned short a)
 [01;35m[K^~~~~~~~~~~~~~[m[K
[01m[K../../../../.././../gcc/gcc-UBER/libgcc/config/arm/fp16.c:137:1:[m[K [01;35m[Kwarning: [m[Kno previous prototype for '[01m[K__gnu_f2h_alternative[m[K' [[01;35m[K-Wmissing-prototypes[m[K]
 [01;35m[K__gnu_f2h_alternative[m[K(unsigned int x)
 [01;35m[K^~~~~~~~~~~~~~~~~~~~~[m[K
[01m[K../../../../.././../gcc/gcc-UBER/libgcc/config/arm/fp16.c:143:1:[m[K [01;35m[Kwarning: [m[Kno previous prototype for '[01m[K__gnu_h2f_alternative[m[K' [[01;35m[K-Wmissing-prototypes[m[K]
 [01;35m[K__gnu_h2f_alternative[m[K(unsigned short a)
 [01;35m[K^~~~~~~~~~~~~~~~~~~~~[m[K
In file included from [01m[K../../../../.././../gcc/gcc-UBER/libgcc/config/arm/unwind-arm.c:143:0[m[K:
[01m[K../../../../.././../gcc/gcc-UBER/libgcc/unwind-arm-common.inc:[m[K In function '[01m[Kget_eit_entry[m[K':
[01m[K../../../../.././../gcc/gcc-UBER/libgcc/unwind-arm-common.inc:245:29:[m[K [01;35m[Kwarning: [m[Kcast discards '[01m[Kconst[m[K' qualifier from pointer target type [[01;35m[K-Wcast-qual[m[K]
       ucbp->pr_cache.ehtp = [01;35m[K([m[K_Unwind_EHT_Header *)&eitp->content;
                             [01;35m[K^[m[K
../../../../.././../gcc/gcc-UBER/libgcc/config/arm/lib1funcs.S: Assembler messages:
../../../../.././../gcc/gcc-UBER/libgcc/config/arm/lib1funcs.S:1003: Warning: conditional infixes are deprecated in unified syntax
../../../../.././../gcc/gcc-UBER/libgcc/config/arm/lib1funcs.S: Assembler messages:
../../../../.././../gcc/gcc-UBER/libgcc/config/arm/lib1funcs.S:1177: Warning: conditional infixes are deprecated in unified syntax
